%YAML 1.1
%TAG !u! tag:unity3d.com,2011:
--- !u!21 &2100000
Material:
  serializedVersion: 8
  m_ObjectHideFlags: 0
  m_CorrespondingSourceObject: {fileID: 0}
  m_PrefabInstance: {fileID: 0}
  m_PrefabAsset: {fileID: 0}
  m_Name: example-water-03
  m_Shader: {fileID: -6465566751694194690, guid: 2cddf2ee6a74aca44af00f5a49bd2cf1, type: 3}
  m_Parent: {fileID: 0}
  m_ModifiedSerializedProperties: 0
  m_ValidKeywords:
  - _DISABLE_DECALS
  - _DISABLE_SSR_TRANSPARENT
  m_InvalidKeywords: []
  m_LightmapFlags: 4
  m_EnableInstancingVariants: 1
  m_DoubleSidedGI: 0
  m_CustomRenderQueue: 2000
  stringTagMap:
    MotionVector: User
  disabledShaderPasses:
  - TransparentDepthPrepass
  - TransparentDepthPostpass
  - TransparentBackface
  - RayTracingPrepass
  - MOTIONVECTORS
  m_LockedProperties: 
  m_SavedProperties:
    serializedVersion: 3
    m_TexEnvs:
    - Texture2D_6490A223:
        m_Texture: {fileID: 2800000, guid: f87d53fcaf34530488b706ee35d9b519, type: 3}
        m_Scale: {x: 1, y: 1}
        m_Offset: {x: 0, y: 0}
    - _BaseMap:
        m_Texture: {fileID: 0}
        m_Scale: {x: 1, y: 1}
        m_Offset: {x: 0, y: 0}
    - _BumpMap:
        m_Texture: {fileID: 0}
        m_Scale: {x: 1, y: 1}
        m_Offset: {x: 0, y: 0}
    - _EmissionMap:
        m_Texture: {fileID: 0}
        m_Scale: {x: 1, y: 1}
        m_Offset: {x: 0, y: 0}
    - _MainTex:
        m_Texture: {fileID: 0}
        m_Scale: {x: 1, y: 1}
        m_Offset: {x: 0, y: 0}
    - _MetallicGlossMap:
        m_Texture: {fileID: 0}
        m_Scale: {x: 1, y: 1}
        m_Offset: {x: 0, y: 0}
    - _OcclusionMap:
        m_Texture: {fileID: 0}
        m_Scale: {x: 1, y: 1}
        m_Offset: {x: 0, y: 0}
    - _SpecGlossMap:
        m_Texture: {fileID: 0}
        m_Scale: {x: 1, y: 1}
        m_Offset: {x: 0, y: 0}
    - unity_Lightmaps:
        m_Texture: {fileID: 0}
        m_Scale: {x: 1, y: 1}
        m_Offset: {x: 0, y: 0}
    - unity_LightmapsInd:
        m_Texture: {fileID: 0}
        m_Scale: {x: 1, y: 1}
        m_Offset: {x: 0, y: 0}
    - unity_ShadowMasks:
        m_Texture: {fileID: 0}
        m_Scale: {x: 1, y: 1}
        m_Offset: {x: 0, y: 0}
    m_Ints: []
    m_Floats:
    - Vector1_17E53C12: 0.77
    - Vector1_244B0600: 1
    - Vector1_34CF798A: 1.75
    - Vector1_36E8227: 0.6
    - Vector1_3D886DA1: 0.05
    - Vector1_46E42935: 0.5
    - Vector1_47683D42: 1
    - Vector1_A0EAD698: 0.5
    - Vector1_A6A0BC26: 0
    - Vector1_B9F56378: 0
    - Vector1_C360A163: 8.12
    - Vector1_DF445019: 1.5
    - Vector1_E03AB928: 0.05
    - Vector1_E5C51606: 0.5
    - Vector1_F38B44AA: 0.5
    - _AddPrecomputedVelocity: 0
    - _AlphaClip: 0
    - _AlphaCutoffEnable: 0
    - _AlphaDstBlend: 0
    - _AlphaSrcBlend: 1
    - _Blend: 0
    - _BlendMode: 0
    - _BumpScale: 1
    - _ConservativeDepthOffsetEnable: 0
    - _Cull: 2
    - _CullMode: 2
    - _CullModeForward: 2
    - _Cutoff: 0.5
    - _DepthOffsetEnable: 0
    - _DoubleSidedEnable: 0
    - _DoubleSidedGIMode: 0
    - _DoubleSidedNormalMode: 2
    - _DstBlend: 0
    - _EnableBlendModePreserveSpecularLighting: 0
    - _EnableFogOnTransparent: 1
    - _EnvironmentReflections: 1
    - _GlossMapScale: 0
    - _Glossiness: 0
    - _GlossyReflections: 0
    - _MaterialID: 1
    - _MaterialTypeMask: 2
    - _Metallic: 0
    - _OcclusionStrength: 1
    - _OpaqueCullMode: 2
    - _QueueControl: 1
    - _QueueOffset: 0
    - _RayTracing: 0
    - _ReceiveShadows: 1
    - _ReceivesSSR: 1
    - _ReceivesSSRTransparent: 0
    - _RefractionModel: 0
    - _RenderQueueType: 1
    - _RequireSplitLighting: 0
    - _Smoothness: 0.5
    - _SmoothnessTextureChannel: 0
    - _SpecularHighlights: 1
    - _SrcBlend: 1
    - _StencilRef: 0
    - _StencilRefDepth: 8
    - _StencilRefDistortionVec: 4
    - _StencilRefGBuffer: 10
    - _StencilRefMV: 40
    - _StencilWriteMask: 6
    - _StencilWriteMaskDepth: 9
    - _StencilWriteMaskDistortionVec: 4
    - _StencilWriteMaskGBuffer: 15
    - _StencilWriteMaskMV: 41
    - _SupportDecals: 0
    - _Surface: 0
    - _SurfaceType: 0
    - _TransmissionEnable: 1
    - _TransparentBackfaceEnable: 0
    - _TransparentCullMode: 2
    - _TransparentDepthPostpassEnable: 0
    - _TransparentDepthPrepassEnable: 0
    - _TransparentSortPriority: 0
    - _TransparentWritingMotionVec: 0
    - _TransparentZWrite: 0
    - _UseShadowThreshold: 0
    - _WaveFrequency: 1.75
    - _WaveScale: 0.05
    - _WaveSpeed: 1.5
    - _WorkflowMode: 1
    - _ZTestDepthEqualForOpaque: 3
    - _ZTestGBuffer: 4
    - _ZTestTransparent: 4
    - _ZWrite: 1
    m_Colors:
    - Color_7D9A58EC: {r: 0.046279836, g: 0.47778645, b: 0.754717, a: 1}
    - Color_F01C36BF: {r: 0.47346365, g: 0.098039195, b: 0.65882355, a: 1}
    - Vector2_37B21477: {r: 0.6, g: 0.6, b: 1, a: 1}
    - _BaseColor: {r: 1, g: 1, b: 1, a: 1}
    - _Color: {r: 1, g: 1, b: 1, a: 1}
    - _DoubleSidedConstants: {r: 1, g: 1, b: -1, a: 0}
    - _EmissionColor: {r: 1, g: 1, b: 1, a: 1}
    - _SpecColor: {r: 0.19999996, g: 0.19999996, b: 0.19999996, a: 1}
  m_BuildTextureStacks: []
--- !u!114 &2609382451057047627
MonoBehaviour:
  m_ObjectHideFlags: 11
  m_CorrespondingSourceObject: {fileID: 0}
  m_PrefabInstance: {fileID: 0}
  m_PrefabAsset: {fileID: 0}
  m_GameObject: {fileID: 0}
  m_Enabled: 1
  m_EditorHideFlags: 0
  m_Script: {fileID: 11500000, guid: da692e001514ec24dbc4cca1949ff7e8, type: 3}
  m_Name: 
  m_EditorClassIdentifier: 
  version: 13
  hdPluginSubTargetMaterialVersions:
    m_Keys: []
    m_Values: 
--- !u!114 &5702210360403225776
MonoBehaviour:
  m_ObjectHideFlags: 11
  m_CorrespondingSourceObject: {fileID: 0}
  m_PrefabInstance: {fileID: 0}
  m_PrefabAsset: {fileID: 0}
  m_GameObject: {fileID: 0}
  m_Enabled: 1
  m_EditorHideFlags: 0
  m_Script: {fileID: 11500000, guid: d0353a89b1f911e48b9e16bdc9f2e058, type: 3}
  m_Name: 
  m_EditorClassIdentifier: 
  version: 7
