{
    "Tags": [
        {
            "Tag": "Root",
            "MainColor": {
                "r": 1.0,
                "g": 1.0,
                "b": 1.0,
                "a": 1.0
            },
            "SecondaryColor": {
                "r": 0.4000000059604645,
                "g": 0.4000000059604645,
                "b": 0.4000000059604645,
                "a": 1.0
            },
            "Description": "The root tag"
        },
        {
            "Tag": "Arrangement",
            "MainColor": {
                "r": 1.0,
                "g": 0.43081754446029665,
                "b": 0.43081754446029665,
                "a": 1.0
            },
            "SecondaryColor": {
                "r": 0.4000000059604645,
                "g": 0.17232701182365418,
                "b": 0.17232701182365418,
                "a": 1.0
            },
            "Description": ""
        },
        {
            "Tag": "Color Change",
            "MainColor": {
                "r": 0.5251572132110596,
                "g": 1.0,
                "b": 0.9955386519432068,
                "a": 1.0
            },
            "SecondaryColor": {
                "r": 0.2100628912448883,
                "g": 0.4000000059604645,
                "b": 0.39821547269821169,
                "a": 1.0
            },
            "Description": ""
        },
        {
            "Tag": "Furniture",
            "MainColor": {
                "r": 1.0,
                "g": 0.8642168641090393,
                "b": 0.41194963455200198,
                "a": 1.0
            },
            "SecondaryColor": {
                "r": 0.4000000059604645,
                "g": 0.34568673372268679,
                "b": 0.16477985680103303,
                "a": 1.0
            },
            "Description": ""
        }
    ]
}