%YAML 1.1
%TAG !u! tag:unity3d.com,2011:
--- !u!114 &11400000
MonoBehaviour:
  m_ObjectHideFlags: 0
  m_CorrespondingSourceObject: {fileID: 0}
  m_PrefabInstance: {fileID: 0}
  m_PrefabAsset: {fileID: 0}
  m_GameObject: {fileID: 0}
  m_Enabled: 1
  m_EditorHideFlags: 0
  m_Script: {fileID: 1511497460, guid: 758128f85e4e7be4e9d8acd9ba681e18, type: 3}
  m_Name: ShortNoteSettings
  m_EditorClassIdentifier: 
  Symbols:
  - Value: "\u2026"
    size: 11
  - Value: '?'
    size: 11
  - Value: "\u2139"
    size: 11
  - Value: "\u203C"
    size: 11
  - Value: "\u26A0"
    size: 12
  - Value: "\u2622"
    size: 13
  - Value: "\u273F"
    size: 13
  - Value: "\uA66A"
    size: 13
  - Value: "\uA66D"
    size: 13
  - Value: "\u214F"
    size: 13
  - Value: "\u266B"
    size: 13
  - Value: "\u2668"
    size: 13
  - Value: "\u23CF"
    size: 11
  - Value: "\u2665"
    size: 11
  - Value: "\u25C6"
    size: 10
  - Value: "\u2660"
    size: 15
  - Value: "\u2663"
    size: 14
  - Value: "\u2718"
    size: 14
  - Value: "\u2714"
    size: 14
  - Value: "\u2702"
    size: 14
  - Value: "\u270E"
    size: 13
  - Value: "\u2326"
    size: 10.5
  - Value: "\u21BA"
    size: 10.5
  - Value: "\u21A9"
    size: 13
  - Value: "\u2196"
    size: 14
  - Value: "\u2198"
    size: 14
  - Value: "\u2194"
    size: 11
  - Value: "\u2195"
    size: 10
  - Value: "\u27B7"
    size: 12
  - Value: "\u27B8"
    size: 12
  - Value: "\u2B06"
    size: 13
  - Value: "\u2318"
    size: 13
  - Value: "\u278A"
    size: 11
  - Value: "\u278B"
    size: 11
  - Value: "\u278C"
    size: 11
  - Value: "\u24CD"
    size: 8.5
  - Value: "\u24CE"
    size: 8.5
  - Value: "\u24CF"
    size: 8.5
  - Value: "\u25CF"
    size: 13
  - Value: "\u25D1"
    size: 13
  - Value: "\u25A0"
    size: 17
  - Value: "\u2751"
    size: 13
  - Value: "\u25A4"
    size: 12
  - Value: "\u25A7"
    size: 12
  - Value: "\u25A6"
    size: 12
  - Value: "\u2756"
    size: 11
  - Value: "\u25B2"
    size: 12
  - Value: "\u2600"
    size: 12
  - Value: "\u2601"
    size: 12
  - Value: "\u2602"
    size: 12.5
  - Value: "\u2744"
    size: 13
  - Value: "\u2605"
    size: 13
  - Value: "\u2042"
    size: 13
  - Value: "\u265A"
    size: 13
  - Value: "\u265B"
    size: 13
  - Value: "\u265C"
    size: 13
  - Value: "\u265D"
    size: 13
  - Value: "\u265E"
    size: 13
  - Value: "\u265F"
    size: 13
  DefaultPaletteIndex: 0
  palettes:
  - colors:
    - {r: 0.88235295, g: 0.39607844, b: 0.34509805, a: 1}
    - {r: 0.96862745, g: 0.67058825, b: 0.28235295, a: 1}
    - {r: 1, g: 0.9882353, b: 0.4627451, a: 1}
    - {r: 0.6, g: 0.8156863, b: 0.37254903, a: 1}
    - {r: 0.24313726, g: 0.6901961, b: 0.44705883, a: 1}
    - {r: 0.19607843, g: 0.6431373, b: 0.7529412, a: 1}
    - {r: 0.96862745, g: 0.96862745, b: 0.96862745, a: 1}
    - {r: 0.95686275, g: 0.7882353, b: 0.8784314, a: 1}
    - {r: 0.9098039, g: 0.34117648, b: 0.64705884, a: 1}
    - {r: 0.47058824, g: 0.40784314, b: 0.63529414, a: 1}
    - {r: 0.69803923, g: 0.5568628, b: 0.7529412, a: 1}
    - {r: 0.7254902, g: 0.827451, b: 0.89411765, a: 1}
  - colors:
    - {r: 0, g: 0.8431373, b: 0.86274517, a: 1}
    - {r: 0.8470589, g: 0.9607844, b: 0.36078432, a: 1}
    - {r: 1, g: 0.6039216, b: 0.6392157, a: 1}
    - {r: 1, g: 0.5921569, b: 0.8117648, a: 1}
    - {r: 0.85098046, g: 0.62352943, b: 0.8078432, a: 1}
    - {r: 0.003921569, g: 0.7568628, b: 0.5764706, a: 1}
    - {r: 0.5686275, g: 0.8196079, b: 0.43137258, a: 1}
    - {r: 0.7607844, g: 0.9215687, b: 0.9176471, a: 1}
    - {r: 0, g: 0.6745098, b: 0.73333335, a: 1}
    - {r: 0.4901961, g: 0.77647066, b: 0.9215687, a: 1}
    - {r: 0.8235295, g: 0.83921576, b: 0.8588236, a: 1}
    - {r: 0.6410051, g: 0.6384834, b: 0.6415094, a: 1}
  - colors:
    - {r: 0.854902, g: 0.72156864, b: 0.54509807, a: 1}
    - {r: 0.95294124, g: 0.91372555, b: 0.86666673, a: 1}
    - {r: 0.7058824, g: 0.8117648, b: 0.6901961, a: 1}
    - {r: 0.5411765, g: 0.77647066, b: 0.8196079, a: 1}
    - {r: 0.6, g: 0.9960785, b: 1, a: 1}
    - {r: 0.7254902, g: 0.4784314, b: 0.58431375, a: 1}
    - {r: 0.85098046, g: 0.8431373, b: 0.9450981, a: 1}
    - {r: 1, g: 0.4431373, b: 0.4431373, a: 1}
    - {r: 0.96470594, g: 0.68235296, b: 0.6, a: 1}
    - {r: 0.32156864, g: 0.34117648, b: 0.3647059, a: 1}
    - {r: 0.9333334, g: 0.73333335, b: 0.3019608, a: 1}
    - {r: 0.93333334, g: 0.8493681, b: 0.66826665, a: 1}
